\relax 
\providecommand\hyper@newdestlabel[2]{}
\providecommand\HyperFirstAtBeginDocument{\AtBeginDocument}
\HyperFirstAtBeginDocument{\ifx\hyper@anchor\@undefined
\global\let\oldcontentsline\contentsline
\gdef\contentsline#1#2#3#4{\oldcontentsline{#1}{#2}{#3}}
\global\let\oldnewlabel\newlabel
\gdef\newlabel#1#2{\newlabelxx{#1}#2}
\gdef\newlabelxx#1#2#3#4#5#6{\oldnewlabel{#1}{{#2}{#3}}}
\AtEndDocument{\ifx\hyper@anchor\@undefined
\let\contentsline\oldcontentsline
\let\newlabel\oldnewlabel
\fi}
\fi}
\global\let\hyper@last\relax 
\gdef\HyperFirstAtBeginDocument#1{#1}
\providecommand\HyField@AuxAddToFields[1]{}
\providecommand\HyField@AuxAddToCoFields[2]{}
\select@language{english}
\@writefile{toc}{\select@language{english}}
\@writefile{lof}{\select@language{english}}
\@writefile{lot}{\select@language{english}}
\@writefile{toc}{\contentsline {section}{\numberline {I}Preliminaries}{1}{section.1}}
\newlabel{eq:obs_inf}{{5}{1}{Preliminaries}{equation.1.5}{}}
\newlabel{eq:gaussian}{{9}{1}{Preliminaries}{equation.1.9}{}}
\newlabel{claim:fusion_rule}{{5}{1}{}{thm.5}{}}
\@writefile{toc}{\contentsline {section}{\numberline {II}Distributed State Estimation (DSE)}{2}{section.2}}
\@writefile{toc}{\contentsline {section}{\numberline {III}GMM background related to DSE}{2}{section.3}}
\newlabel{eq:prod_f}{{34}{2}{}{equation.3.34}{}}
